<svg xmlns="http://www.w3.org/2000/svg" xmlns:xlink="http://www.w3.org/1999/xlink" width="400px" height="320px" xml:lang="en">
    <title>
        Re-usable Lights Stoplight
    </title>
    <defs>
        <circle id="light" cx="70" r="30"/>
        <radialGradient id="red-light-off" fx="0.45" fy="0.4">
            <stop offset="0" stop-color="maroon"/>
            <stop offset="0.7" stop-color="#220000"/>
            <stop offset="1.0" stop-color="black"/>
        </radialGradient>
        <radialGradient id="red-light-on" fx="0.45" fy="0.4">
            <stop offset="0" stop-color="orange"/>
            <stop offset="0.8" stop-color="red"/>
            <stop offset="1.0" stop-color="darkRed"/>
        </radialGradient>
        <radialGradient id="yellow-light-off" fx="0.45" fy="0.4">
            <stop offset="0" stop-color="#A06000"/>
            <stop offset="0.7" stop-color="#804000"/>
            <stop offset="1" stop-color="#502000"/>
        </radialGradient>
        <radialGradient id="yellow-light-on" fx="0.45" fy="0.4">
            <stop offset="0" stop-color="yellow"/>
            <stop offset="0.8" stop-color="moccasin"/>
            <stop offset="1" stop-color="darkOrange"/>
        </radialGradient>
        <radialGradient id="green-light-on" fx="0.45" fy="0.4">
            <stop offset="0.1" stop-color="#88FF00"/>
            <stop offset="0.8" stop-color="forestGreen"/>
            <stop offset="1.0" stop-color="darkGreen"/>
        </radialGradient>
        <radialGradient id="green-light-off" fx="0.45" fy="0.4">
            <stop offset="0.1" stop-color="darkGreen"/>
            <stop offset="0.7" stop-color="darkolivegreen"/>
            <stop offset="1.0" stop-color="darkolivegreen"/>
        </radialGradient>
        <linearGradient id="metal" gradientTransform="scale(2) rotate(45)" spreadMethod="repeat">
            <stop offset="0" stop-color="#808080"/>
            <stop offset="0.25" stop-color="#404040"/>
            <stop offset="0.35" stop-color="#C0C0C0"/>
            <stop offset="0.5" stop-color="#808080"/>
            <stop offset="0.7" stop-color="#E0E0E0"/>
            <stop offset="0.75" stop-color="#606060"/>
            <stop offset="0.9" stop-color="#A0A0A0"/>
            <stop offset="1" stop-color="#808080"/>
        </linearGradient>
    </defs>
    <style>
        @keyframes cycle{ 33.3% {visibility: visible;}100% {visibility: hidden;}} 
        .lit{ animation: cycle 9s step-start infinite; } 
        .red .lit { animation-delay: -3s; } 
        .yellow .lit { animation-delay: -6s; } 
        .green .lit { animation-delay: 0s; } 
        text { font: bold 60px sans-serif; }
    </style>
    <rect width="100" height="280" x="20" y="20" fill="url(#metal)" stroke="black" stroke-width="3"/>
    <g stroke="black" stroke-width="2">
        <g class="red light">
            <use y="80" fill="url(#red-light-off)" xlink:href="#light"/>
            <g fill="url(#red-light-on)" class="lit">
                <use y="80" xlink:href="#light"/>
                <text x="140" y="100" stroke="darkRed">
                    STOP
                </text>
            </g>
        </g>
        <g class="yellow light">
            <use y="160" fill="url(#yellow-light-off)" xlink:href="#light"/>
            <g fill="url(#yellow-light-on)" class="lit" visibility="hidden">
                <use y="160" xlink:href="#light"/>
                <text x="140" y="180" stroke="darkOrange">
                    SLOW
                </text>
            </g>
        </g>
        <g class="green light">
            <use y="240" fill="url(#green-light-off)" xlink:href="#light"/>
            <g fill="url(#green-light-on)" class="lit" visibility="hidden">
                <use y="240" xlink:href="#light"/>
                <text x="140" y="260" stroke="darkGreen">
                    GO!
                </text>
            </g>
        </g>
    </g>
</svg>
